// Jest Snapshot v1, https://goo.gl/fbAQLP

exports[`Activity screen component renders correctly  1`] = `
<View
  style={
    Array [
      Object {
        "fontScale": 2,
        "height": 1334,
        "scale": 2,
        "width": 750,
      },
      Object {
        "flex": 1,
      },
      Object {
        "backgroundColor": "#FFFFFF",
      },
    ]
  }
>
  <View
    style={
      Object {
        "flex": 1,
      }
    }
  >
    <View
      style={
        Array [
          Object {
            "borderBottomWidth": 0.5,
          },
          Object {
            "borderColor": "#D3DBE3",
          },
          Array [
            Object {
              "backgroundColor": "#FFFFFF",
            },
            Object {
              "borderBottomWidth": 0,
              "shadowColor": "#000",
              "shadowOffset": Object {
                "height": 1,
                "width": 0,
              },
              "shadowOpacity": 0.22,
              "shadowRadius": 2.22,
            },
            Object {
              "paddingTop": -10,
            },
          ],
        ]
      }
    >
      <View
        style={
          Object {
            "alignItems": "center",
            "display": "flex",
            "flexDirection": "row",
            "paddingHorizontal": 20,
            "paddingVertical": 13,
          }
        }
      >
        <Text
          allowFontScaling={false}
          onPress={[MockFunction]}
          style={
            Array [
              Object {
                "color": undefined,
                "fontSize": 45,
              },
              Array [
                Object {
                  "elevation": 4,
                  "left": 0,
                  "position": "absolute",
                  "shadowOffset": Object {
                    "height": 1,
                    "width": 1,
                  },
                  "shadowOpacity": 0.2,
                  "shadowRadius": 3,
                },
                Object {
                  "color": "#43434D",
                },
                Object {
                  "top": 5,
                },
                Array [
                  Object {
                    "color": "#43434D",
                  },
                  Object {
                    "marginLeft": -17,
                    "marginRight": -5,
                    "paddingTop": 5,
                    "position": undefined,
                    "top": undefined,
                    "width": 50,
                  },
                ],
              ],
              Object {
                "fontFamily": "Material Design Icons",
                "fontStyle": "normal",
                "fontWeight": "normal",
              },
              Object {},
            ]
          }
          testID="floatingBackButton"
        >
          󰅁
        </Text>
        <View
          onPress={[Function]}
        >
          <View
            style={
              Array [
                Object {
                  "overflow": "hidden",
                },
                Object {
                  "borderRadius": 18.5,
                  "height": 37,
                  "width": 37,
                },
              ]
            }
          >
            <FastImageView
              resizeMode="cover"
              source={
                Object {
                  "headers": Object {
                    "App-Version": "3.8.0",
                    "Cache-Control": "no-cache, no-store, must-revalidate",
                    "Content-Type": "application/json",
                    "Pragma": "no-cache",
                  },
                  "uri": "https://cdn.minds.com/icon/824853017709780997/medium/undefined",
                }
              }
              style={
                Object {
                  "bottom": 0,
                  "left": 0,
                  "position": "absolute",
                  "right": 0,
                  "top": 0,
                }
              }
            />
          </View>
        </View>
        <View
          style={
            Object {
              "flex": 1,
              "marginLeft": 10,
              "paddingRight": 5,
            }
          }
        >
          <View
            style={
              Object {
                "flexDirection": "column",
              }
            }
          >
            <View
              pointerEvents="box-none"
              style={
                Array [
                  Object {
                    "flexDirection": "row",
                    "justifyContent": "flex-start",
                  },
                  Object {
                    "alignItems": "center",
                  },
                ]
              }
            >
              <Text
                numberOfLines={1}
                onPress={[Function]}
                style={
                  Array [
                    Object {
                      "color": "#43434D",
                    },
                    Object {
                      "fontFamily": "Roboto-Light",
                      "fontWeight": "300",
                    },
                    Object {
                      "fontWeight": "700",
                    },
                    Object {
                      "fontSize": 17,
                    },
                    Object {
                      "flex": 1,
                    },
                  ]
                }
              >
                
              </Text>
            </View>
          </View>
        </View>
        <View
          style={
            Object {
              "flexDirection": "row",
              "justifyContent": "center",
            }
          }
        >
          <View
            style={
              Object {
                "paddingLeft": 10,
              }
            }
          >
            <Text
              allowFontScaling={false}
              onPress={[Function]}
              style={
                Array [
                  Object {
                    "color": undefined,
                    "fontSize": 28,
                  },
                  Object {
                    "color": "#9B9B9B",
                  },
                  Object {
                    "fontFamily": "Material Icons",
                    "fontStyle": "normal",
                    "fontWeight": "normal",
                  },
                  Object {},
                ]
              }
            >
              
            </Text>
          </View>
        </View>
      </View>
    </View>
    <RCTScrollView
      contentContainerStyle={
        Array [
          Object {
            "width": "100%",
          },
          Object {
            "flexGrow": 1,
            "justifyContent": "center",
          },
        ]
      }
      onContentSizeChange={[Function]}
      onLayout={[Function]}
      style={
        Object {
          "flex": 1,
        }
      }
    >
      <View>
        <View
          accessibilityLabel="touchableTextCopy"
          onLongPress={[Function]}
          style={
            Array [
              Object {
                "paddingHorizontal": 20,
              },
              Object {
                "paddingVertical": 20,
              },
            ]
          }
        >
          <View
            style={
              Object {
                "flex": 1,
              }
            }
          >
            <Text
              selectable={true}
              style={
                Array [
                  Array [
                    Object {
                      "fontSize": 28,
                    },
                    Object {
                      "fontFamily": "Roboto-Medium",
                      "fontWeight": "500",
                    },
                  ],
                  Object {
                    "marginBottom": 5,
                  },
                  Object {
                    "fontWeight": "700",
                  },
                ]
              }
            >
              TITLE
            </Text>
            <Text
              selectable={false}
              style={
                Array [
                  Object {
                    "fontSize": 28,
                  },
                  Object {
                    "fontFamily": "Roboto-Medium",
                    "fontWeight": "500",
                  },
                ]
              }
            >
              Message
            </Text>
          </View>
          <View>
            <Modal
              animationType="none"
              deviceHeight={null}
              deviceWidth={null}
              hardwareAccelerated={false}
              hideModalContentWhileAnimating={false}
              onBackdropPress={[Function]}
              onModalHide={[Function]}
              onModalWillHide={[Function]}
              onModalWillShow={[Function]}
              onRequestClose={[Function]}
              panResponderThreshold={4}
              scrollHorizontal={false}
              scrollOffset={0}
              scrollOffsetMax={0}
              scrollTo={null}
              supportedOrientations={
                Array [
                  "portrait",
                  "landscape",
                ]
              }
              swipeThreshold={100}
              transparent={true}
              visible={false}
            >
              <View
                accessible={true}
                focusable={true}
                forwardedRef={[Function]}
                onClick={[Function]}
                onResponderGrant={[Function]}
                onResponderMove={[Function]}
                onResponderRelease={[Function]}
                onResponderTerminate={[Function]}
                onResponderTerminationRequest={[Function]}
                onStartShouldSetResponder={[Function]}
                style={
                  Object {
                    "backgroundColor": "#F8FAFA",
                    "bottom": 0,
                    "height": 1334,
                    "left": 0,
                    "opacity": 0,
                    "position": "absolute",
                    "right": 0,
                    "top": 0,
                    "width": 750,
                  }
                }
              />
              <View
                deviceHeight={null}
                deviceWidth={null}
                forwardedRef={[Function]}
                hideModalContentWhileAnimating={false}
                onBackdropPress={[Function]}
                onModalHide={[Function]}
                onModalWillHide={[Function]}
                onModalWillShow={[Function]}
                panResponderThreshold={4}
                pointerEvents="box-none"
                scrollHorizontal={false}
                scrollOffset={0}
                scrollOffsetMax={0}
                scrollTo={null}
                style={
                  Object {
                    "flex": 1,
                    "justifyContent": "center",
                    "margin": 37.5,
                    "transform": Array [
                      Object {
                        "translateY": 0,
                      },
                    ],
                  }
                }
                supportedOrientations={
                  Array [
                    "portrait",
                    "landscape",
                  ]
                }
                swipeThreshold={100}
              >
                <View
                  style={
                    Object {
                      "flex": 1,
                      "width": "100%",
                    }
                  }
                >
                  <View
                    style={
                      Array [
                        Object {
                          "flex": 1,
                        },
                        Object {
                          "marginTop": 15,
                        },
                      ]
                    }
                  >
                    <RCTScrollView
                      data={null}
                      disableVirtualization={false}
                      extraData=""
                      getItem={[Function]}
                      getItemCount={[Function]}
                      horizontal={false}
                      initialNumToRender={10}
                      keyExtractor={[Function]}
                      maxToRenderPerBatch={10}
                      onContentSizeChange={[Function]}
                      onEndReachedThreshold={2}
                      onLayout={[Function]}
                      onMomentumScrollEnd={[Function]}
                      onScroll={[Function]}
                      onScrollBeginDrag={[Function]}
                      onScrollEndDrag={[Function]}
                      onScrollToIndexFailed={[Function]}
                      removeClippedSubviews={false}
                      renderItem={[Function]}
                      scrollEventThrottle={50}
                      stickyHeaderIndices={Array []}
                      style={
                        Object {
                          "flex": 1,
                        }
                      }
                      updateCellsBatchingPeriod={50}
                      viewabilityConfigCallbackPairs={Array []}
                      windowSize={21}
                    >
                      <View />
                    </RCTScrollView>
                  </View>
                  <View
                    style={
                      Object {
                        "alignSelf": "center",
                        "backgroundColor": "transparent",
                        "borderRadius": 28,
                        "height": 55,
                        "margin": 7,
                        "overflow": "hidden",
                        "shadowColor": "rgba(0,0,0, .4)",
                        "shadowOffset": Object {
                          "height": 1,
                          "width": 1,
                        },
                        "shadowOpacity": 1,
                        "shadowRadius": 1,
                        "width": 55,
                        "zIndex": 1000,
                      }
                    }
                  >
                    <View
                      activeOpacity={0.3}
                      disabled={false}
                      onPress={[Function]}
                      underlayColor="transparent"
                    >
                      <View
                        style={
                          Object {
                            "alignItems": "center",
                            "backgroundColor": "#ffffff",
                            "borderRadius": 28,
                            "height": 52,
                            "justifyContent": "center",
                            "width": 52,
                          }
                        }
                      >
                        <Text
                          allowFontScaling={false}
                          style={
                            Array [
                              Object {
                                "color": "black",
                                "fontSize": 24,
                              },
                              Object {
                                "backgroundColor": "transparent",
                              },
                              Object {
                                "fontFamily": "Ionicons",
                                "fontStyle": "normal",
                                "fontWeight": "normal",
                              },
                              Object {},
                            ]
                          }
                          testID="iconIcon"
                        >
                          
                        </Text>
                      </View>
                    </View>
                  </View>
                </View>
              </View>
            </Modal>
          </View>
        </View>
        <View
          style={
            Array [
              Object {
                "flexDirection": "row",
                "justifyContent": "space-between",
              },
              Object {
                "padding": 10,
              },
              Object {
                "paddingLeft": 20,
              },
            ]
          }
        >
          <Text
            style={
              Array [
                Object {
                  "color": "#72727C",
                },
                Object {
                  "fontSize": 14,
                },
                Object {
                  "paddingVertical": 5,
                },
              ]
            }
          >
            
            Mar 25 2018 · 20:51
          </Text>
        </View>
      </View>
    </RCTScrollView>
    <ExpoLinearGradient
      colors={
        Array [
          "#F6F7F700",
          "#F6F7F7FF",
        ]
      }
      style={
        Object {
          "bottom": 0,
          "height": 40,
          "position": "absolute",
          "width": "100%",
        }
      }
    />
  </View>
  <View
    style={
      Object {
        "paddingBottom": -10,
      }
    }
  >
    <View
      style={
        Array [
          Object {
            "flexDirection": "row",
            "justifyContent": "flex-start",
          },
          Object {
            "backgroundColor": "#FFFFFF",
          },
          Object {
            "paddingLeft": 10,
          },
          Object {
            "borderTopWidth": 0.5,
          },
          Object {
            "borderColor": "#D3DBE3",
          },
        ]
      }
    />
    <View>
      <View
        style={
          Array [
            Object {
              "borderTopWidth": 0.5,
              "display": "flex",
              "flexDirection": "row",
              "justifyContent": "space-evenly",
              "paddingHorizontal": 10,
            },
            Object {
              "borderColor": "#D3DBE3",
            },
          ]
        }
      >
        <View
          onPress={[Function]}
          style={
            Array [
              Object {
                "flexDirection": "row",
                "justifyContent": "center",
              },
              Object {
                "paddingHorizontal": 15,
              },
              Object {
                "paddingVertical": 20,
              },
              Object {
                "alignItems": "center",
              },
            ]
          }
          testID="Thumb up activity button"
        >
          <Text
            allowFontScaling={false}
            style={
              Array [
                Object {
                  "color": undefined,
                  "fontSize": 19,
                },
                Array [
                  Array [
                    Object {
                      "color": "#7D7D82",
                    },
                    Object {
                      "marginRight": 5,
                    },
                  ],
                  [Function],
                ],
                Object {
                  "fontFamily": "anticon",
                  "fontStyle": "normal",
                  "fontWeight": "normal",
                },
                Object {},
              ]
            }
          >
            
          </Text>
        </View>
        <View
          onPress={[Function]}
          style={
            Array [
              Object {
                "flexDirection": "row",
                "justifyContent": "center",
              },
              Object {
                "paddingHorizontal": 15,
              },
              Object {
                "paddingVertical": 20,
              },
              Object {
                "alignItems": "center",
              },
            ]
          }
          testID="Thumb down activity button"
        >
          <Text
            allowFontScaling={false}
            style={
              Array [
                Object {
                  "color": undefined,
                  "fontSize": 19,
                },
                Array [
                  Array [
                    Object {
                      "color": "#7D7D82",
                    },
                    Object {
                      "marginRight": 5,
                    },
                  ],
                  [Function],
                ],
                Object {
                  "fontFamily": "anticon",
                  "fontStyle": "normal",
                  "fontWeight": "normal",
                },
                Object {},
              ]
            }
          >
            
          </Text>
        </View>
        <View
          onPress={[Function]}
          style={
            Array [
              Object {
                "flexDirection": "row",
                "justifyContent": "center",
              },
              Object {
                "paddingHorizontal": 15,
              },
              Object {
                "paddingVertical": 20,
              },
              Object {
                "alignItems": "center",
              },
            ]
          }
          testID=""
        >
          <Text
            allowFontScaling={false}
            style={
              Array [
                Object {
                  "color": undefined,
                  "fontSize": 19,
                },
                Array [
                  Object {
                    "color": "#7D7D82",
                  },
                  Object {
                    "marginRight": 5,
                  },
                ],
                Object {
                  "fontFamily": "Material Design Icons",
                  "fontStyle": "normal",
                  "fontWeight": "normal",
                },
                Object {},
              ]
            }
          >
            󰆂
          </Text>
          <View
            style={
              Object {
                "alignItems": "center",
                "flexDirection": "column",
              }
            }
          >
            <Text
              size={15}
            >
              
            </Text>
          </View>
        </View>
        <View
          onPress={[Function]}
          style={
            Array [
              Object {
                "flexDirection": "row",
                "justifyContent": "center",
              },
              Object {
                "paddingHorizontal": 15,
              },
              Object {
                "paddingVertical": 20,
              },
              Object {
                "alignItems": "center",
              },
            ]
          }
          testID="Remind activity button"
        >
          <Text
            allowFontScaling={false}
            style={
              Array [
                Object {
                  "color": undefined,
                  "fontSize": 19,
                },
                Array [
                  Object {
                    "color": "#7D7D82",
                  },
                  Object {
                    "marginRight": 5,
                  },
                ],
                Object {
                  "fontFamily": "Material Icons",
                  "fontStyle": "normal",
                  "fontWeight": "normal",
                },
                Object {},
              ]
            }
          >
            
          </Text>
        </View>
        <View
          onPress={[Function]}
          style={
            Array [
              Object {
                "flexDirection": "row",
                "justifyContent": "center",
              },
              Object {
                "paddingHorizontal": 15,
              },
              Object {
                "paddingVertical": 20,
              },
              Object {
                "alignItems": "center",
              },
            ]
          }
        >
          <Text
            allowFontScaling={false}
            style={
              Array [
                Object {
                  "color": undefined,
                  "fontSize": 18,
                },
                Object {
                  "color": "#7D7D82",
                },
                Object {
                  "fontFamily": "Feather",
                  "fontStyle": "normal",
                  "fontWeight": "normal",
                },
                Object {},
              ]
            }
          >
            
          </Text>
          <Modal
            animationType="none"
            deviceHeight={null}
            deviceWidth={null}
            hardwareAccelerated={false}
            hideModalContentWhileAnimating={false}
            onBackdropPress={[Function]}
            onModalHide={[Function]}
            onModalWillHide={[Function]}
            onModalWillShow={[Function]}
            onRequestClose={[Function]}
            onSwipeComplete={[Function]}
            panResponderThreshold={4}
            scrollHorizontal={false}
            scrollOffset={0}
            scrollOffsetMax={0}
            scrollTo={null}
            supportedOrientations={
              Array [
                "portrait",
                "landscape",
              ]
            }
            swipeDirection="down"
            swipeThreshold={100}
            transparent={true}
            visible={false}
          >
            <View
              accessible={true}
              focusable={true}
              forwardedRef={[Function]}
              onClick={[Function]}
              onResponderGrant={[Function]}
              onResponderMove={[Function]}
              onResponderRelease={[Function]}
              onResponderTerminate={[Function]}
              onResponderTerminationRequest={[Function]}
              onStartShouldSetResponder={[Function]}
              style={
                Object {
                  "backgroundColor": "#1A2025",
                  "bottom": 0,
                  "height": 1334,
                  "left": 0,
                  "opacity": 0,
                  "position": "absolute",
                  "right": 0,
                  "top": 0,
                  "width": 750,
                }
              }
            />
            <View
              onLayout={[Function]}
              pointerEvents="box-none"
              style={
                Array [
                  Array [
                    Object {
                      "margin": 37.5,
                      "transform": Array [
                        Object {
                          "translateY": 0,
                        },
                      ],
                    },
                    Object {
                      "flex": 1,
                      "justifyContent": "center",
                    },
                    Array [
                      Object {
                        "width": "100%",
                      },
                      Object {
                        "margin": 0,
                      },
                      Object {
                        "justifyContent": "flex-end",
                      },
                    ],
                    Object {
                      "margin": 0,
                    },
                  ],
                  Object {
                    "paddingBottom": 0,
                  },
                ]
              }
            >
              <View
                deviceHeight={null}
                deviceWidth={null}
                forwardedRef={[Function]}
                hideModalContentWhileAnimating={false}
                onBackdropPress={[Function]}
                onModalHide={[Function]}
                onModalWillHide={[Function]}
                onModalWillShow={[Function]}
                onMoveShouldSetResponder={[Function]}
                onMoveShouldSetResponderCapture={[Function]}
                onResponderEnd={[Function]}
                onResponderGrant={[Function]}
                onResponderMove={[Function]}
                onResponderReject={[Function]}
                onResponderRelease={[Function]}
                onResponderStart={[Function]}
                onResponderTerminate={[Function]}
                onResponderTerminationRequest={[Function]}
                onStartShouldSetResponder={[Function]}
                onStartShouldSetResponderCapture={[Function]}
                onSwipeComplete={[Function]}
                panResponderThreshold={4}
                pointerEvents="box-none"
                scrollHorizontal={false}
                scrollOffset={0}
                scrollOffsetMax={0}
                scrollTo={null}
                style={
                  Object {
                    "flex": 1,
                    "justifyContent": "flex-end",
                    "margin": 0,
                    "transform": Array [
                      Object {
                        "translateY": 0,
                      },
                    ],
                    "width": "100%",
                  }
                }
                supportedOrientations={
                  Array [
                    "portrait",
                    "landscape",
                  ]
                }
                swipeDirection="down"
                swipeThreshold={100}
              >
                <View
                  forwardedRef={[Function]}
                  style={
                    Object {
                      "paddingBottom": 5,
                    }
                  }
                >
                  <View
                    forwardedRef={[Function]}
                    style={
                      Object {
                        "paddingBottom": 10,
                      }
                    }
                  >
                    <View
                      onPress={[Function]}
                      underlayColor="transparent"
                    >
                      <View
                        style={
                          Object {
                            "alignItems": "center",
                            "backgroundColor": "#FFFFFF",
                            "borderBottomWidth": 0.5,
                            "borderColor": "#D3DBE3",
                            "borderTopLeftRadius": 10,
                            "borderTopRightRadius": 10,
                            "flexDirection": "row",
                            "marginHorizontal": 15,
                            "padding": 14,
                          }
                        }
                        testID="padView"
                      >
                        <View
                          style={
                            Object {
                              "alignItems": "flex-start",
                              "flex": 1,
                              "justifyContent": "center",
                            }
                          }
                          theme={
                            Object {
                              "colors": Object {
                                "black": "#242424",
                                "disabled": "hsl(208, 8%, 90%)",
                                "divider": "#bcbbc1",
                                "error": "#ff190c",
                                "grey0": "#393e42",
                                "grey1": "#43484d",
                                "grey2": "#5e6977",
                                "grey3": "#86939e",
                                "grey4": "#bdc6cf",
                                "grey5": "#e1e8ee",
                                "greyOutline": "#bbb",
                                "platform": Object {
                                  "android": Object {
                                    "error": "#f44336",
                                    "grey": "rgba(0, 0, 0, 0.54)",
                                    "primary": "#2196f3",
                                    "secondary": "#9C27B0",
                                    "success": "#4caf50",
                                    "warning": "#ffeb3b",
                                  },
                                  "ios": Object {
                                    "error": "#ff3b30",
                                    "grey": "#7d7d7d",
                                    "primary": "#007aff",
                                    "searchBg": "#dcdce1",
                                    "secondary": "#5856d6",
                                    "success": "#4cd964",
                                    "warning": "#ffcc00",
                                  },
                                },
                                "primary": "#2089dc",
                                "searchBg": "#303337",
                                "secondary": "#ca71eb",
                                "success": "#52c41a",
                                "warning": "#faad14",
                                "white": "#ffffff",
                              },
                            }
                          }
                        >
                          <Text
                            style={
                              Object {
                                "alignContent": "center",
                                "alignItems": "center",
                                "alignSelf": "center",
                                "backgroundColor": "transparent",
                                "color": "#43434D",
                                "fontSize": 18,
                                "justifyContent": "center",
                                "paddingVertical": 5,
                              }
                            }
                            testID="listItemTitle"
                          >
                            Send to
                          </Text>
                        </View>
                      </View>
                    </View>
                    <View
                      onPress={[Function]}
                      underlayColor="transparent"
                    >
                      <View
                        style={
                          Object {
                            "alignItems": "center",
                            "backgroundColor": "#FFFFFF",
                            "borderBottomLeftRadius": 10,
                            "borderBottomRightRadius": 10,
                            "borderColor": "#D3DBE3",
                            "flexDirection": "row",
                            "marginBottom": 10,
                            "marginHorizontal": 15,
                            "padding": 14,
                          }
                        }
                        testID="padView"
                      >
                        <View
                          style={
                            Object {
                              "alignItems": "flex-start",
                              "flex": 1,
                              "justifyContent": "center",
                            }
                          }
                          theme={
                            Object {
                              "colors": Object {
                                "black": "#242424",
                                "disabled": "hsl(208, 8%, 90%)",
                                "divider": "#bcbbc1",
                                "error": "#ff190c",
                                "grey0": "#393e42",
                                "grey1": "#43484d",
                                "grey2": "#5e6977",
                                "grey3": "#86939e",
                                "grey4": "#bdc6cf",
                                "grey5": "#e1e8ee",
                                "greyOutline": "#bbb",
                                "platform": Object {
                                  "android": Object {
                                    "error": "#f44336",
                                    "grey": "rgba(0, 0, 0, 0.54)",
                                    "primary": "#2196f3",
                                    "secondary": "#9C27B0",
                                    "success": "#4caf50",
                                    "warning": "#ffeb3b",
                                  },
                                  "ios": Object {
                                    "error": "#ff3b30",
                                    "grey": "#7d7d7d",
                                    "primary": "#007aff",
                                    "searchBg": "#dcdce1",
                                    "secondary": "#5856d6",
                                    "success": "#4cd964",
                                    "warning": "#ffcc00",
                                  },
                                },
                                "primary": "#2089dc",
                                "searchBg": "#303337",
                                "secondary": "#ca71eb",
                                "success": "#52c41a",
                                "warning": "#faad14",
                                "white": "#ffffff",
                              },
                            }
                          }
                        >
                          <Text
                            style={
                              Object {
                                "alignContent": "center",
                                "alignItems": "center",
                                "alignSelf": "center",
                                "backgroundColor": "transparent",
                                "color": "#43434D",
                                "fontSize": 18,
                                "justifyContent": "center",
                                "paddingVertical": 5,
                              }
                            }
                            testID="listItemTitle"
                          >
                            Share
                          </Text>
                        </View>
                      </View>
                    </View>
                  </View>
                  <View
                    forwardedRef={[Function]}
                    style={
                      Object {
                        "paddingBottom": 10,
                      }
                    }
                  >
                    <View
                      onPress={[Function]}
                      underlayColor="transparent"
                    >
                      <View
                        style={
                          Object {
                            "alignItems": "center",
                            "backgroundColor": "#FFFFFF",
                            "borderBottomLeftRadius": 10,
                            "borderBottomRightRadius": 10,
                            "borderColor": "#D3DBE3",
                            "borderTopLeftRadius": 10,
                            "borderTopRightRadius": 10,
                            "flexDirection": "row",
                            "marginBottom": 10,
                            "marginHorizontal": 15,
                            "padding": 14,
                          }
                        }
                        testID="padView"
                      >
                        <View
                          style={
                            Object {
                              "alignItems": "flex-start",
                              "flex": 1,
                              "justifyContent": "center",
                            }
                          }
                          theme={
                            Object {
                              "colors": Object {
                                "black": "#242424",
                                "disabled": "hsl(208, 8%, 90%)",
                                "divider": "#bcbbc1",
                                "error": "#ff190c",
                                "grey0": "#393e42",
                                "grey1": "#43484d",
                                "grey2": "#5e6977",
                                "grey3": "#86939e",
                                "grey4": "#bdc6cf",
                                "grey5": "#e1e8ee",
                                "greyOutline": "#bbb",
                                "platform": Object {
                                  "android": Object {
                                    "error": "#f44336",
                                    "grey": "rgba(0, 0, 0, 0.54)",
                                    "primary": "#2196f3",
                                    "secondary": "#9C27B0",
                                    "success": "#4caf50",
                                    "warning": "#ffeb3b",
                                  },
                                  "ios": Object {
                                    "error": "#ff3b30",
                                    "grey": "#7d7d7d",
                                    "primary": "#007aff",
                                    "searchBg": "#dcdce1",
                                    "secondary": "#5856d6",
                                    "success": "#4cd964",
                                    "warning": "#ffcc00",
                                  },
                                },
                                "primary": "#2089dc",
                                "searchBg": "#303337",
                                "secondary": "#ca71eb",
                                "success": "#52c41a",
                                "warning": "#faad14",
                                "white": "#ffffff",
                              },
                            }
                          }
                        >
                          <Text
                            style={
                              Object {
                                "alignContent": "center",
                                "alignItems": "center",
                                "alignSelf": "center",
                                "backgroundColor": "transparent",
                                "color": "#72727C",
                                "fontSize": 18,
                                "justifyContent": "center",
                                "paddingVertical": 5,
                              }
                            }
                            testID="listItemTitle"
                          >
                            Cancel
                          </Text>
                        </View>
                      </View>
                    </View>
                  </View>
                </View>
              </View>
            </View>
          </Modal>
        </View>
      </View>
    </View>
  </View>
  <InteractionsBottomSheet
    entity={
      Object {
        "allow_comments": true,
        "attachment_guid": false,
        "blurb": false,
        "comments:count": undefined,
        "containerObj": undefined,
        "container_guid": "activityguid0",
        "custom_data": false,
        "custom_type": false,
        "description": "Congratulations! ",
        "edited": "",
        "entity_guid": "",
        "getLockType": [Function],
        "guid": "activityguid0",
        "impressions": 0,
        "isOwner": [Function],
        "is_visible": false,
        "mature": false,
        "mature_visibility": false,
        "message": "Message",
        "ownerObj": Object {
          "__list": null,
          "allow_comments": true,
          "blocked": undefined,
          "canary": false,
          "confirmEmail": [Function],
          "disable_autoplay_videos": undefined,
          "email_confirmed": false,
          "eth_wallet": "",
          "founder": false,
          "groupsCount": 0,
          "guid": "824853017709780997",
          "impressions": undefined,
          "isOwner": [Function],
          "is_admin": false,
          "last_accepted_tos": 0,
          "mature": false,
          "mature_visibility": false,
          "mode": 0,
          "nsfw": Array [],
          "onchain_booster": 0,
          "pending_subscribe": false,
          "permissions": Object {},
          "plus": false,
          "plus_method": "tokens",
          "pro": false,
          "pro_method": "tokens",
          "rewards": false,
          "subscribed": undefined,
          "subscriber": false,
          "subscribers_count": undefined,
          "subscriptions_count": 0,
          "subtype": false,
          "tags": Array [],
          "time_created": "1522036284",
          "time_updated": "",
          "type": "user",
          "urn": "",
          "username": "",
          "verified": false,
          "wire_rewards": undefined,
        },
        "owner_guid": "824853017709780997",
        "parent_guid": "838106762591510528",
        "paywall": "",
        "paywall_unlocked": false,
        "perma_url": false,
        "permissions": Object {},
        "pinned": false,
        "quotes": 0,
        "reminds": 0,
        "rowKey": "something0",
        "shouldBeBlured": [MockFunction] {
          "calls": Array [
            Array [],
            Array [],
          ],
          "results": Array [
            Object {
              "type": "return",
              "value": undefined,
            },
            Object {
              "type": "return",
              "value": undefined,
            },
          ],
        },
        "subtype": "",
        "thumbnail_src": false,
        "thumbs:down:count": undefined,
        "thumbs:down:user_guids": undefined,
        "thumbs:up:count": undefined,
        "thumbs:up:user_guids": undefined,
        "time_created": "1522036284",
        "time_updated": "",
        "title": "TITLE",
        "type": "activity",
        "urn": "",
        "username": "",
        "wire_totals": Object {
          "tokens": 1000000000000000000,
        },
      }
    }
  />
  <InteractionsBottomSheet
    entity={
      Object {
        "allow_comments": true,
        "attachment_guid": false,
        "blurb": false,
        "comments:count": undefined,
        "containerObj": undefined,
        "container_guid": "activityguid0",
        "custom_data": false,
        "custom_type": false,
        "description": "Congratulations! ",
        "edited": "",
        "entity_guid": "",
        "getLockType": [Function],
        "guid": "activityguid0",
        "impressions": 0,
        "isOwner": [Function],
        "is_visible": false,
        "mature": false,
        "mature_visibility": false,
        "message": "Message",
        "ownerObj": Object {
          "__list": null,
          "allow_comments": true,
          "blocked": undefined,
          "canary": false,
          "confirmEmail": [Function],
          "disable_autoplay_videos": undefined,
          "email_confirmed": false,
          "eth_wallet": "",
          "founder": false,
          "groupsCount": 0,
          "guid": "824853017709780997",
          "impressions": undefined,
          "isOwner": [Function],
          "is_admin": false,
          "last_accepted_tos": 0,
          "mature": false,
          "mature_visibility": false,
          "mode": 0,
          "nsfw": Array [],
          "onchain_booster": 0,
          "pending_subscribe": false,
          "permissions": Object {},
          "plus": false,
          "plus_method": "tokens",
          "pro": false,
          "pro_method": "tokens",
          "rewards": false,
          "subscribed": undefined,
          "subscriber": false,
          "subscribers_count": undefined,
          "subscriptions_count": 0,
          "subtype": false,
          "tags": Array [],
          "time_created": "1522036284",
          "time_updated": "",
          "type": "user",
          "urn": "",
          "username": "",
          "verified": false,
          "wire_rewards": undefined,
        },
        "owner_guid": "824853017709780997",
        "parent_guid": "838106762591510528",
        "paywall": "",
        "paywall_unlocked": false,
        "perma_url": false,
        "permissions": Object {},
        "pinned": false,
        "quotes": 0,
        "reminds": 0,
        "rowKey": "something0",
        "shouldBeBlured": [MockFunction] {
          "calls": Array [
            Array [],
            Array [],
          ],
          "results": Array [
            Object {
              "type": "return",
              "value": undefined,
            },
            Object {
              "type": "return",
              "value": undefined,
            },
          ],
        },
        "subtype": "",
        "thumbnail_src": false,
        "thumbs:down:count": undefined,
        "thumbs:down:user_guids": undefined,
        "thumbs:up:count": undefined,
        "thumbs:up:user_guids": undefined,
        "time_created": "1522036284",
        "time_updated": "",
        "title": "TITLE",
        "type": "activity",
        "urn": "",
        "username": "",
        "wire_totals": Object {
          "tokens": 1000000000000000000,
        },
      }
    }
  />
  <InteractionsBottomSheet
    entity={
      Object {
        "allow_comments": true,
        "attachment_guid": false,
        "blurb": false,
        "comments:count": undefined,
        "containerObj": undefined,
        "container_guid": "activityguid0",
        "custom_data": false,
        "custom_type": false,
        "description": "Congratulations! ",
        "edited": "",
        "entity_guid": "",
        "getLockType": [Function],
        "guid": "activityguid0",
        "impressions": 0,
        "isOwner": [Function],
        "is_visible": false,
        "mature": false,
        "mature_visibility": false,
        "message": "Message",
        "ownerObj": Object {
          "__list": null,
          "allow_comments": true,
          "blocked": undefined,
          "canary": false,
          "confirmEmail": [Function],
          "disable_autoplay_videos": undefined,
          "email_confirmed": false,
          "eth_wallet": "",
          "founder": false,
          "groupsCount": 0,
          "guid": "824853017709780997",
          "impressions": undefined,
          "isOwner": [Function],
          "is_admin": false,
          "last_accepted_tos": 0,
          "mature": false,
          "mature_visibility": false,
          "mode": 0,
          "nsfw": Array [],
          "onchain_booster": 0,
          "pending_subscribe": false,
          "permissions": Object {},
          "plus": false,
          "plus_method": "tokens",
          "pro": false,
          "pro_method": "tokens",
          "rewards": false,
          "subscribed": undefined,
          "subscriber": false,
          "subscribers_count": undefined,
          "subscriptions_count": 0,
          "subtype": false,
          "tags": Array [],
          "time_created": "1522036284",
          "time_updated": "",
          "type": "user",
          "urn": "",
          "username": "",
          "verified": false,
          "wire_rewards": undefined,
        },
        "owner_guid": "824853017709780997",
        "parent_guid": "838106762591510528",
        "paywall": "",
        "paywall_unlocked": false,
        "perma_url": false,
        "permissions": Object {},
        "pinned": false,
        "quotes": 0,
        "reminds": 0,
        "rowKey": "something0",
        "shouldBeBlured": [MockFunction] {
          "calls": Array [
            Array [],
            Array [],
          ],
          "results": Array [
            Object {
              "type": "return",
              "value": undefined,
            },
            Object {
              "type": "return",
              "value": undefined,
            },
          ],
        },
        "subtype": "",
        "thumbnail_src": false,
        "thumbs:down:count": undefined,
        "thumbs:down:user_guids": undefined,
        "thumbs:up:count": undefined,
        "thumbs:up:user_guids": undefined,
        "time_created": "1522036284",
        "time_updated": "",
        "title": "TITLE",
        "type": "activity",
        "urn": "",
        "username": "",
        "wire_totals": Object {
          "tokens": 1000000000000000000,
        },
      }
    }
  />
  <InteractionsBottomSheet
    entity={
      Object {
        "allow_comments": true,
        "attachment_guid": false,
        "blurb": false,
        "comments:count": undefined,
        "containerObj": undefined,
        "container_guid": "activityguid0",
        "custom_data": false,
        "custom_type": false,
        "description": "Congratulations! ",
        "edited": "",
        "entity_guid": "",
        "getLockType": [Function],
        "guid": "activityguid0",
        "impressions": 0,
        "isOwner": [Function],
        "is_visible": false,
        "mature": false,
        "mature_visibility": false,
        "message": "Message",
        "ownerObj": Object {
          "__list": null,
          "allow_comments": true,
          "blocked": undefined,
          "canary": false,
          "confirmEmail": [Function],
          "disable_autoplay_videos": undefined,
          "email_confirmed": false,
          "eth_wallet": "",
          "founder": false,
          "groupsCount": 0,
          "guid": "824853017709780997",
          "impressions": undefined,
          "isOwner": [Function],
          "is_admin": false,
          "last_accepted_tos": 0,
          "mature": false,
          "mature_visibility": false,
          "mode": 0,
          "nsfw": Array [],
          "onchain_booster": 0,
          "pending_subscribe": false,
          "permissions": Object {},
          "plus": false,
          "plus_method": "tokens",
          "pro": false,
          "pro_method": "tokens",
          "rewards": false,
          "subscribed": undefined,
          "subscriber": false,
          "subscribers_count": undefined,
          "subscriptions_count": 0,
          "subtype": false,
          "tags": Array [],
          "time_created": "1522036284",
          "time_updated": "",
          "type": "user",
          "urn": "",
          "username": "",
          "verified": false,
          "wire_rewards": undefined,
        },
        "owner_guid": "824853017709780997",
        "parent_guid": "838106762591510528",
        "paywall": "",
        "paywall_unlocked": false,
        "perma_url": false,
        "permissions": Object {},
        "pinned": false,
        "quotes": 0,
        "reminds": 0,
        "rowKey": "something0",
        "shouldBeBlured": [MockFunction] {
          "calls": Array [
            Array [],
            Array [],
          ],
          "results": Array [
            Object {
              "type": "return",
              "value": undefined,
            },
            Object {
              "type": "return",
              "value": undefined,
            },
          ],
        },
        "subtype": "",
        "thumbnail_src": false,
        "thumbs:down:count": undefined,
        "thumbs:down:user_guids": undefined,
        "thumbs:up:count": undefined,
        "thumbs:up:user_guids": undefined,
        "time_created": "1522036284",
        "time_updated": "",
        "title": "TITLE",
        "type": "activity",
        "urn": "",
        "username": "",
        "wire_totals": Object {
          "tokens": 1000000000000000000,
        },
      }
    }
  />
  <CommentBottomSheet
    commentsStore={
      CommentsStore {
        "attachment": AttachmentStore {
          "cancelOrDelete": [Function],
          "fileName": null,
          "guid": "",
          "transcoding": false,
        },
        "comments": Array [],
        "embed": RichEmbedStore {
          "_richEmbedFetchTimer": null,
          "clearRichEmbedAction": [Function],
          "richEmbedUrl": "",
          "setRichEmbedPromise": null,
        },
        "entity": Object {
          "allow_comments": true,
          "attachment_guid": false,
          "blurb": false,
          "comments:count": undefined,
          "containerObj": undefined,
          "container_guid": "activityguid0",
          "custom_data": false,
          "custom_type": false,
          "description": "Congratulations! ",
          "edited": "",
          "entity_guid": "",
          "getLockType": [Function],
          "guid": "activityguid0",
          "impressions": 0,
          "isOwner": [Function],
          "is_visible": false,
          "mature": false,
          "mature_visibility": false,
          "message": "Message",
          "ownerObj": Object {
            "__list": null,
            "allow_comments": true,
            "blocked": undefined,
            "canary": false,
            "confirmEmail": [Function],
            "disable_autoplay_videos": undefined,
            "email_confirmed": false,
            "eth_wallet": "",
            "founder": false,
            "groupsCount": 0,
            "guid": "824853017709780997",
            "impressions": undefined,
            "isOwner": [Function],
            "is_admin": false,
            "last_accepted_tos": 0,
            "mature": false,
            "mature_visibility": false,
            "mode": 0,
            "nsfw": Array [],
            "onchain_booster": 0,
            "pending_subscribe": false,
            "permissions": Object {},
            "plus": false,
            "plus_method": "tokens",
            "pro": false,
            "pro_method": "tokens",
            "rewards": false,
            "subscribed": undefined,
            "subscriber": false,
            "subscribers_count": undefined,
            "subscriptions_count": 0,
            "subtype": false,
            "tags": Array [],
            "time_created": "1522036284",
            "time_updated": "",
            "type": "user",
            "urn": "",
            "username": "",
            "verified": false,
            "wire_rewards": undefined,
          },
          "owner_guid": "824853017709780997",
          "parent_guid": "838106762591510528",
          "paywall": "",
          "paywall_unlocked": false,
          "perma_url": false,
          "permissions": Object {},
          "pinned": false,
          "quotes": 0,
          "reminds": 0,
          "rowKey": "something0",
          "shouldBeBlured": [MockFunction] {
            "calls": Array [
              Array [],
              Array [],
            ],
            "results": Array [
              Object {
                "type": "return",
                "value": undefined,
              },
              Object {
                "type": "return",
                "value": undefined,
              },
            ],
          },
          "subtype": "",
          "thumbnail_src": false,
          "thumbs:down:count": undefined,
          "thumbs:down:user_guids": undefined,
          "thumbs:up:count": undefined,
          "thumbs:up:user_guids": undefined,
          "time_created": "1522036284",
          "time_updated": "",
          "title": "TITLE",
          "type": "activity",
          "urn": "",
          "username": "",
          "wire_totals": Object {
            "tokens": 1000000000000000000,
          },
        },
        "errorLoadingNext": false,
        "errorLoadingPrevious": false,
        "focusedUrn": null,
        "level": 0,
        "loadNext": "",
        "loadPrevious": "",
        "loaded": false,
        "loadingNext": false,
        "loadingPrevious": false,
        "mature": 0,
        "onAttachedMedia": [Function],
        "parent": null,
        "post": [Function],
        "refreshing": false,
        "reversed": true,
        "saving": false,
        "selectMediaType": [Function],
        "showInput": false,
        "socketRoomName": "",
        "text": "",
      }
    }
    hideContent={false}
  />
</View>
`;
